Biostat 203B Homework 5
…
mimic_recipe <-
  recipe(
    los_long ~ .,
    data = Mimic_other
  ) %>%
  step_impute_mean(all_numeric_predictors()) %>%
  step_impute_knn(all_nominal_predictors()) %>%
  step_dummy(all_nominal_predictors()) %>%
  step_zv(all_numeric_predictors()) %>%
  step_normalize(all_numeric_predictors()) %>%
  prep(training = Mimic_other, retain = TRUE)
mimic_recipe %>% bake(Mimic_other)

# A tibble: 36,590 × 45
   anchor_age anchor_year age_intime Creatinine White_Blood_Cells   Glucose
        <dbl>       <dbl>      <dbl>      <dbl>             <dbl>     <dbl>
 1     0.580       1.44       0.670    4.88e- 1         -6.30e- 1 -6.46e- 1
 2     0.996      -1.01       1.09    -6.05e- 2         -1.36e- 1 -1.25e- 1
 3    -0.905       1.74      -0.695   -5.48e- 1         -8.93e- 1 -3.85e- 1
 4     0.342       0.808      0.492   -1.21e- 1         -1.19e+ 0 -4.68e- 1
 5     0.0455      0.0878    -0.0422   4.90e-14         -3.12e- 1  1.30e-13
 6    -1.80        0.893     -1.88     4.90e-14          1.50e-14  1.30e-13
 7     0.105      -0.505      0.0765  -1.82e- 1         -5.20e- 1 -4.09e- 1
 8     0.758      -1.01       0.788   -3.04e- 1         -3.88e- 1 -3.26e- 1
 9    -0.667      -1.73      -0.754    4.90e-14          1.50e-14  1.30e-13
10     1.47        1.02       1.38    -3.65e- 1         -3.01e- 1 -3.97e- 1
# ℹ 36,580 more rows
# ℹ 39 more variables: Hematocrit <dbl>, Bicarbonate <dbl>, Potassium <dbl>,
#   Chloride <dbl>, Sodium <dbl>, Respiratory_Rate <dbl>, Heart_Rate <dbl>,
#   Non_Invasive_Blood_Pressure_systolic <dbl>,
#   Non_Invasive_Blood_Pressure_diastolic <dbl>, Temperature_Fahrenheit <dbl>,
#   los_long <fct>, first_careunit_Medical.Intensive.Care.Unit..MICU. <dbl>,
#   first_careunit_Medical.Surgical.Intensive.Care.Unit..MICU.SICU. <dbl>, …
…
ℹ The workflow being saved contains a recipe, which is 18.29 Mb in ℹ memory. If
this was not intentional, please set the control setting ℹ `save_workflow =
FALSE`.

logit_fit  %>%
  collect_metrics() %>%
  print(width = Inf) %>%
  filter(.metric == "roc_auc") %>%
  ggplot(mapping = aes(x = penalty, y = mean, color = factor(mixture))) +
  geom_point() +
  labs(x = "Penalty", y = "CV AUC") +
  scale_x_log10()

# A tibble: 1,000 × 8
      penalty mixture .metric  .estimator  mean     n std_err
        <dbl>   <dbl> <chr>    <chr>      <dbl> <int>   <dbl>
 1 0.000001         0 accuracy binary     0.588     5 0.00220
 2 0.000001         0 roc_auc  binary     0.623     5 0.00246
 3 0.00000123       0 accuracy binary     0.588     5 0.00220
 4 0.00000123       0 roc_auc  binary     0.623     5 0.00246
 5 0.00000152       0 accuracy binary     0.588     5 0.00220
 6 0.00000152       0 roc_auc  binary     0.623     5 0.00246
 7 0.00000187       0 accuracy binary     0.588     5 0.00220
 8 0.00000187       0 roc_auc  binary     0.623     5 0.00246
 9 0.00000231       0 accuracy binary     0.588     5 0.00220
10 0.00000231       0 roc_auc  binary     0.623     5 0.00246
   .config               
   <chr>                 
 1 Preprocessor1_Model001
 2 Preprocessor1_Model001
 3 Preprocessor1_Model002
 4 Preprocessor1_Model002
 5 Preprocessor1_Model003
 6 Preprocessor1_Model003
 7 Preprocessor1_Model004
 8 Preprocessor1_Model004
 9 Preprocessor1_Model005
10 Preprocessor1_Model005
# ℹ 990 more rows
…
ℹ The workflow being saved contains a recipe, which is 18.29 Mb in ℹ memory. If
this was not intentional, please set the control setting ℹ `save_workflow =
FALSE`.

rf_fit %>%
  collect_metrics() %>%
  print(width = Inf) %>%
  filter(.metric == "roc_auc") %>%
  ggplot(mapping = aes(x = trees, y = mean, color = factor(mtry))) +
  geom_point() + 
  # geom_line() + 
  labs(x = "Num. of Trees", y = "CV AUC")

# A tibble: 50 × 8
    mtry trees .metric  .estimator  mean     n std_err .config              
   <int> <int> <chr>    <chr>      <dbl> <int>   <dbl> <chr>                
 1     1   100 accuracy binary     0.591     5 0.00410 Preprocessor1_Model01
 2     1   100 roc_auc  binary     0.640     5 0.00255 Preprocessor1_Model01
 3     1   175 accuracy binary     0.593     5 0.00515 Preprocessor1_Model02
 4     1   175 roc_auc  binary     0.642     5 0.00276 Preprocessor1_Model02
 5     1   250 accuracy binary     0.594     5 0.00299 Preprocessor1_Model03
 6     1   250 roc_auc  binary     0.644     5 0.00246 Preprocessor1_Model03
 7     1   325 accuracy binary     0.595     5 0.00390 Preprocessor1_Model04
 8     1   325 roc_auc  binary     0.645     5 0.00295 Preprocessor1_Model04
 9     1   400 accuracy binary     0.596     5 0.00456 Preprocessor1_Model05
10     1   400 roc_auc  binary     0.646     5 0.00258 Preprocessor1_Model05
# ℹ 40 more rows
…
ℹ The workflow being saved contains a recipe, which is 18.29 Mb in ℹ memory. If
this was not intentional, please set the control setting ℹ `save_workflow =
FALSE`.

gb_fit %>%
  collect_metrics() %>%
  print(width = Inf) %>%
  filter(.metric == "roc_auc") %>%
  ggplot(mapping = aes(x = learn_rate, y = mean, color = factor(tree_depth))) +
  geom_point() +
  labs(x = "Learning Rate", y = "CV AUC") +
  scale_x_log10()

# A tibble: 60 × 8
   tree_depth learn_rate .metric  .estimator  mean     n std_err
        <int>      <dbl> <chr>    <chr>      <dbl> <int>   <dbl>
 1          1  0.00001   accuracy binary     0.550     5 0.00338
 2          1  0.00001   roc_auc  binary     0.539     5 0.00172
 3          3  0.00001   accuracy binary     0.569     5 0.00230
 4          3  0.00001   roc_auc  binary     0.575     5 0.00317
 5          6  0.00001   accuracy binary     0.583     5 0.00409
 6          6  0.00001   roc_auc  binary     0.610     5 0.00450
 7          1  0.0000599 accuracy binary     0.550     5 0.00338
 8          1  0.0000599 roc_auc  binary     0.539     5 0.00172
 9          3  0.0000599 accuracy binary     0.570     5 0.00269
10          3  0.0000599 roc_auc  binary     0.580     5 0.00402
   .config              
   <chr>                
 1 Preprocessor1_Model01
 2 Preprocessor1_Model01
 3 Preprocessor1_Model02
 4 Preprocessor1_Model02
 5 Preprocessor1_Model03
 6 Preprocessor1_Model03
 7 Preprocessor1_Model04
 8 Preprocessor1_Model04
 9 Preprocessor1_Model05
10 Preprocessor1_Model05
# ℹ 50 more rows
…
